,,,Period Variability,Period Variability,Initial Synchrony Variability,Initial Synchrony Variability,Stage Transition Phases,Stage Transition Phases,
Strain,Period,CoV,sigma^*,mu^*,sigma_0^*,mu_0^*,theta_{RT}^*,theta_{TS}^*,Model Error
Circadian,24.93,8.45e-02,4.64e-02,-,-,-,-,-,-
3D7,38,3.65e-02,2.01e-02,6.63e-04,7.69e-07,7.03e-06,3.23e-01,6.19e-01,1.59e+00
3D7,39,2.76e-02,1.52e-02,3.80e-04,8.37e-05,1.95e-04,3.12e-01,6.02e-01,1.16e+00
3D7,40,4.20e-02,2.31e-02,8.81e-04,1.96e-06,5.89e-05,3.05e-01,5.81e-01,1.30e+00
SA250,53,9.95e-02,5.45e-02,4.89e-03,7.52e-04,9.51e-01,4.24e-01,6.91e-01,2.81e-01
SA250,54,1.02e-01,5.58e-02,5.12e-03,2.76e-05,9.54e-01,4.19e-01,6.80e-01,2.41e-01
SA250,55,1.01e-01,5.54e-02,5.06e-03,3.19e-04,9.71e-01,4.27e-01,6.83e-01,2.43e-01
FVO,42,8.53e-02,4.68e-02,3.61e-03,5.63e-03,9.38e-01,5.73e-01,7.99e-01,3.68e-01
FVO,43,8.17e-02,4.49e-02,3.32e-03,2.03e-02,9.56e-01,5.71e-01,7.97e-01,3.07e-01
FVO,44,8.53e-02,4.68e-02,3.61e-03,1.89e-03,9.79e-01,5.76e-01,8.02e-01,2.98e-01
D6,35,1.16e-03,6.41e-04,6.76e-07,7.53e-02,2.16e-02,4.71e-01,6.30e-01,8.68e-01
D6,36,2.27e-03,1.25e-03,2.59e-06,7.50e-02,5.33e-02,4.78e-01,6.29e-01,6.47e-01
D6,37,1.18e-02,6.53e-03,7.02e-05,7.83e-02,7.94e-02,4.77e-01,6.26e-01,6.96e-01
HB3,45,9.13e-02,5.01e-02,4.13e-03,1.94e-02,8.05e-05,3.83e-01,6.57e-01,1.94e-01
HB3,46,8.27e-02,4.54e-02,3.39e-03,3.18e-02,1.57e-02,3.90e-01,6.57e-01,1.68e-01
HB3,47,7.89e-02,4.33e-02,3.09e-03,3.59e-02,3.63e-02,4.02e-01,6.64e-01,1.78e-01
